1 10 20
100 200 125
201 210 89
900 1000 174
1 1 1
10 10 7
9999 9999 92
1000 8898 262
989 32 179
93243 4343 351
12 4565 238
2324 1 183
1 88888 351
1 100 119
143 5 122
3 89 116
40 89 116
434 5452 238
68 10 113
90999 134350 354
100 120 114
130 194 125
249 435 144
2464 23232 279
4424 4563 184
222 333 144
444 555 142
666 777 171
888 888 73
999 1111 169
11 55 113
22 33 112
55 88 116
99 1 119
5 70 113
14577 90234 351
31324 43532 324
214562 547832 470
1111 7777 262
55555 9952 340
99 22 119
33 66 113
11 44 112
88 553 144
430 2000 182
2021 2290 183
13245 2341 268
531 9866 262
1234 5678 238
31342 65321 340
6564 1111 262
7843 2324 262
56787 34224 340
123 987 179
10000 10000 30
999998 999999 259
2532 67868 340
53421 8654 340
3434 76878 340
8797 7543 252
120 123 96
145 678 145
90 91 93
78 76 36
35 65 113
19087 47343 324
42 555 144
67 7532 262
2456 99 183
9 4521 238
678 9090 262
7453 1252 262
52 231 128
7810 4248 262
531 977 179
159 533 144
24 111 119
987 12345 268
1 2 2
76391 94521 351
4 400 144
5 500 144
7 700 145
1 1003 179
700 7000 262
632 1000 179
123 321 131
234 432 144
567 765 171
678 876 179
789 987 179
25456 65750 340
565432 234450 470
999991 999993 166
90007 80000 333
6332 13453 276
7842 10000 260
64449 78787 351
34009 71594 340
85938 328482 443
8511 3333 262
11 333 144
666 888 179
9212 1111 262
537 11 144
980 52 179
683 124 145
177 333 144
88 88 18
99 99 26
100 101 26
135988 214449 383
31450 79210 351
545 2958 217
6060 7271 262
3 9 20
1 8 17
2 17 20
2 35 112
7564 29642 308
5759 24352 282
98220 25283 351
