......................
----------------------------------------------------------------------
Ran 22 tests in 104.307s

OK
Name             Stmts   Miss Branch BrPart  Cover   Missing
------------------------------------------------------------
Collatz.py          38      0     14      0   100%
TestCollatz.py      95      0      0      0   100%
------------------------------------------------------------
TOTAL              133      0     14      0   100%
