1 10 20
100 200 125
201 210 89
900 999 174
10 1 20
735 703 171
967 999 143
9 818 171
163 444 144
645 263 144
25 174 125
5 32 112
10 64 113
3 128 119
256 40 128
84 512 144
169 170 50
53 341 144
106 682 145
35 13 112
831 306 171
33 781 171
242 50 128
7 8 17
355 190 144
17 38 112
1 999 179
544 555 137
3796 4278 202
8477 3858 262
7143 7361 195
4157 9702 262
5042 4624 210
1749 6226 262
1567 5971 238
2632 5521 238
8573 9017 247
4653 1164 238
2481 6170 238
6044 1261 238
3592 5314 238
2676 2177 209
5462 7838 262
4830 6876 262
1 9999 262
4796 3018 238
9894 7197 260
1289 5566 238
6089 7543 262
9501 5553 262
2385 4307 238
3371 9581 262
9227 9999 260
1 99999 351
87664 90314 333
29662 53327 340
90698 36276 351
85743 77863 338
14959 71886 340
15262 77745 351
24255 25020 264
71598 94195 351
53706 30377 340
11644 34093 308
41462 91755 351
34736 61888 340
21710 50301 324
38705 39301 275
97257 46239 351
82987 17399 351
28967 40229 324
44489 35639 324
60663 66438 335
83252 54879 351
28139 61614 340
10000 99999 351
64056 22191 340
83677 33926 351
14742 62058 340
52925 96802 351
26956 26060 308
84580 97399 333
71106 59512 335
99245 88347 333
42135 41426 257
27285 46934 324
84840 84794 165
17519 24042 282
43673 94630 351
10962 25883 282
63513 15515 340
12755 95179 351
39426 60896 340
60369 29205 340
89691 13291 351
18336 47770 324
72872 98947 351
18846 15251 279
60011 56820 304
48722 17482 324
1 1 1
756 756 109
9898 9898 30
22222 22222 57
